Generalised linear models - Poisson regression
…
You can find the file in data/seatbelts.csv

Visualise the data

A good first step is always to explore your data prior to any further analysis.

tidyverse

First, we load and inspect the data:

islands <- read_csv("data/island.csv")

islands

# A tibble: 35 × 2
   species  area
     <dbl> <dbl>
 1     114  12.1
 2     130  13.4
 3     113  13.7
 4     109  14.5
 5     118  16.8
 6     136  19.0
 7     149  19.6
 8     162  20.6
 9     145  20.9
10     148  21.0
# … with 25 more rows
…
