13 Overdispersion
…
13.2 Load and visualise the data

First we load the data, then we visualise it.

R
Python

galapagos <- read_csv("data/galapagos.csv")

Let’s have a glimpse at the data:

galapagos

# A tibble: 30 × 5
   species endemics  area elevation nearest
     <dbl>    <dbl> <dbl>     <dbl>   <dbl>
 1      58       23 25.1        346     0.6
 2      31       21  1.24       109     0.6
 3       3        3  0.21       114     2.8
 4      25        9  0.1         46     1.9
 5       2        1  0.05        77     1.9
 6      18       11  0.34       119     8  
 7      24        0  0.08        93     6  
 8      10        7  2.33       168    34.1
 9       8        4  0.03        71     0.4
10       2        2  0.18       112     2.6
# ℹ 20 more rows
…
