9 Count data
…
9.2 Load and visualise the data

First we load the data, then we visualise it.

R
Python

islands <- read_csv("data/islands.csv")

Let’s have a glimpse at the data:

islands

# A tibble: 35 × 2
   species  area
     <dbl> <dbl>
 1     114  12.1
 2     130  13.4
 3     113  13.7
 4     109  14.5
 5     118  16.8
 6     136  19.0
 7     149  19.6
 8     162  20.6
 9     145  20.9
10     148  21.0
# ℹ 25 more rows
…
